…
    ## Rows: 219 Columns: 3
    ## ── Column specification ────────────────────────────────────────────────────────
    ## Delimiter: ","
    ## dbl (3): Year, Month, Passengers
    ## 
    ## ℹ Use `spec()` to retrieve the full column specification for this data.
    ## ℹ Specify the column types or set `show_col_types = FALSE` to quiet this message.

``` r
air.ts<- air %>% mutate(date=mdy(paste(Month, "1",Year))) %>%  mutate(Month.ts = yearmonth(date)) %>% as_tsibble(index = Month.ts)
air.ts
```

    ## # A tsibble: 219 x 5 [1M]
    ##     Year Month Passengers date       Month.ts
    ##    <dbl> <dbl>      <dbl> <date>        <mth>
    ##  1  1990     1      34348 1990-01-01 1990 Jan
    ##  2  1990     2      33536 1990-02-01 1990 Feb
    ##  3  1990     3      40578 1990-03-01 1990 Mar
    ##  4  1990     4      38267 1990-04-01 1990 Apr
    ##  5  1990     5      38249 1990-05-01 1990 May
    ##  6  1990     6      40792 1990-06-01 1990 Jun
    ##  7  1990     7      42225 1990-07-01 1990 Jul
    ##  8  1990     8      44943 1990-08-01 1990 Aug
    ##  9  1990     9      35708 1990-09-01 1990 Sep
    ## 10  1990    10      38286 1990-10-01 1990 Oct
    ## # ℹ 209 more rows
…
``` r
energy <- read_csv('energy_F2024.csv', show_col_types = FALSE)
energy <- energy %>% mutate(datetime_beginning_utc = mdy_hm(energy$datetime_beginning_utc), datetime_beginning_ept = mdy_hm(energy$datetime_beginning_ept))
energy <- energy %>% mutate(date = date(energy$datetime_beginning_ept))
energy
```

    ## # A tibble: 52,608 × 9
    ##    datetime_beginning_utc datetime_beginning_ept nerc_region mkt_region zone 
    ##    <dttm>                 <dttm>                 <chr>       <chr>      <chr>
    ##  1 2018-08-01 04:00:00    2018-08-01 00:00:00    RFC         WEST       AEP  
    ##  2 2018-08-01 05:00:00    2018-08-01 01:00:00    RFC         WEST       AEP  
    ##  3 2018-08-01 06:00:00    2018-08-01 02:00:00    RFC         WEST       AEP  
    ##  4 2018-08-01 07:00:00    2018-08-01 03:00:00    RFC         WEST       AEP  
    ##  5 2018-08-01 08:00:00    2018-08-01 04:00:00    RFC         WEST       AEP  
    ##  6 2018-08-01 09:00:00    2018-08-01 05:00:00    RFC         WEST       AEP  
    ##  7 2018-08-01 10:00:00    2018-08-01 06:00:00    RFC         WEST       AEP  
    ##  8 2018-08-01 11:00:00    2018-08-01 07:00:00    RFC         WEST       AEP  
    ##  9 2018-08-01 12:00:00    2018-08-01 08:00:00    RFC         WEST       AEP  
    ## 10 2018-08-01 13:00:00    2018-08-01 09:00:00    RFC         WEST       AEP  
    ## # ℹ 52,598 more rows
    ## # ℹ 4 more variables: load_area <chr>, mw <dbl>, is_verified <lgl>, date <date>

``` r
energy2 <- energy %>% group_by(date) %>% summarise(mw=sum(mw))
energy2 %>% arrange(desc(mw))
```

    ## # A tibble: 2,192 × 2
    ##    date            mw
    ##    <date>       <dbl>
    ##  1 2022-12-24 183480.
    ##  2 2019-01-21 176162.
    ##  3 2024-01-17 170286.
    ##  4 2019-01-31 168222.
    ##  5 2019-01-30 165320.
    ##  6 2024-01-20 162835.
    ##  7 2022-12-23 162513.
    ##  8 2024-01-21 156640.
    ##  9 2019-01-22 155242.
    ## 10 2022-12-25 154010.
    ## # ℹ 2,182 more rows

``` r
max(energy2$mw)
```

    ## [1] 183480.3

``` r
energy.ts <- as_tsibble(energy2, index=date)
energy.ts
```

    ## # A tsibble: 2,192 x 2 [1D]
    ##    date            mw
    ##    <date>       <dbl>
    ##  1 2018-08-01 110120.
    ##  2 2018-08-02 108872.
    ##  3 2018-08-03 106642.
    ##  4 2018-08-04 108985.
    ##  5 2018-08-05 110822.
    ##  6 2018-08-06 119088.
    ##  7 2018-08-07 119968.
    ##  8 2018-08-08 117167.
    ##  9 2018-08-09 118797.
    ## 10 2018-08-10 115601.
    ## # ℹ 2,182 more rows
…
``` r
energy <- read_csv('energy_F2024.csv', show_col_types = FALSE)
energy <- energy %>% mutate(datetime_beginning_utc = mdy_hm(energy$datetime_beginning_utc), datetime_beginning_ept = mdy_hm(energy$datetime_beginning_ept))
energy <- energy %>% mutate(date = date(energy$datetime_beginning_ept))
energy2 <- energy %>% group_by(date) %>% summarise(mw=sum(mw))
energy.ts <- as_tsibble(energy2, index=date)
#energy.ts$yr_month = format(energy.ts$date, "%Y-%m")
#energy.ts$ym = ym(energy.ts$yr_month)
energy.ts$yr_month = yearmonth(energy.ts$date)

energy.month = energy.ts[, -1] %>% group_by(yr_month) %>% summarise(mw = mean(mw)) %>% as_tsibble(index=yr_month)
energy.month
```

    ## # A tsibble: 72 x 2 [1M]
    ##    yr_month      mw
    ##       <mth>   <dbl>
    ##  1 2018 Aug 112235.
    ##  2 2018 Sep 106165.
    ##  3 2018 Oct 101049.
    ##  4 2018 Nov 110296.
    ##  5 2018 Dec 119736.
    ##  6 2019 Jan 130367.
    ##  7 2019 Feb 116998.
    ##  8 2019 Mar 111472.
    ##  9 2019 Apr  94396.
    ## 10 2019 May  98615.
    ## # ℹ 62 more rows
…
    ## [1] 106820.9

2.  Decompose your training data by using the STL decomposition assuming
    there is a monthly seasonality. Describe what you see in your
    decomposition. Describe what you observe for each component (feel
    free to use other plots to help you describe seasonality and trend).
    Which components explain the most variability? Use your Fs and Ft to
    help guide your discussions.

``` r
energy_dcmp <- train |> model(stl = STL(mw))
components(energy_dcmp)
```

    ## # A dable: 48 x 7 [1M]
    ## # Key:     .model [1]
    ## # :        mw = trend + season_year + remainder
    ##    .model yr_month      mw   trend season_year remainder season_adjust
    ##    <chr>     <mth>   <dbl>   <dbl>       <dbl>     <dbl>         <dbl>
    ##  1 stl    2018 Aug 112235. 110900.       3265.    -1930.       108970.
    ##  2 stl    2018 Sep 106165. 110687.      -5064.      542.       111229.
    ##  3 stl    2018 Oct 101049. 110474.     -12118.     2692.       113167.
    ##  4 stl    2018 Nov 110296. 110261.        588.     -553.       109708.
    ##  5 stl    2018 Dec 119736. 110048.       9087.      601.       110648.
    ##  6 stl    2019 Jan 130367. 109834.      19908.      625.       110459.
    ##  7 stl    2019 Feb 116998. 109620.      13303.    -5925.       103695.
    ##  8 stl    2019 Mar 111472. 109380.      -2186.     4278.       113658.
    ##  9 stl    2019 Apr  94396. 109139.     -13828.     -914.       108225.
    ## 10 stl    2019 May  98615. 108898.     -12956.     2673.       111571.
    ## # ℹ 38 more rows
…
    ## # A tibble: 1 × 9
    ##   trend_strength seasonal_strength_year seasonal_peak_year seasonal_trough_year
    ##            <dbl>                  <dbl>              <dbl>                <dbl>
    ## 1          0.368                  0.914                  6                    9
    ## # ℹ 5 more variables: spikiness <dbl>, linearity <dbl>, curvature <dbl>,
    ## #   stl_e_acf1 <dbl>, stl_e_acf10 <dbl>

HW 2:

``` r
energy <- read_csv('energy_F2024.csv', show_col_types = FALSE)
energy
```

    ## # A tibble: 52,608 × 8
    ##    datetime_beginning_utc datetime_beginning_ept nerc_region mkt_region zone 
    ##    <chr>                  <chr>                  <chr>       <chr>      <chr>
    ##  1 8/1/2018 4:00          8/1/2018 0:00          RFC         WEST       AEP  
    ##  2 8/1/2018 5:00          8/1/2018 1:00          RFC         WEST       AEP  
    ##  3 8/1/2018 6:00          8/1/2018 2:00          RFC         WEST       AEP  
    ##  4 8/1/2018 7:00          8/1/2018 3:00          RFC         WEST       AEP  
    ##  5 8/1/2018 8:00          8/1/2018 4:00          RFC         WEST       AEP  
    ##  6 8/1/2018 9:00          8/1/2018 5:00          RFC         WEST       AEP  
    ##  7 8/1/2018 10:00         8/1/2018 6:00          RFC         WEST       AEP  
    ##  8 8/1/2018 11:00         8/1/2018 7:00          RFC         WEST       AEP  
    ##  9 8/1/2018 12:00         8/1/2018 8:00          RFC         WEST       AEP  
    ## 10 8/1/2018 13:00         8/1/2018 9:00          RFC         WEST       AEP  
    ## # ℹ 52,598 more rows
    ## # ℹ 3 more variables: load_area <chr>, mw <dbl>, is_verified <lgl>
``` r
#Convert to date-time and pull out date only
energy <- energy %>% mutate(datetime_beginning_ept = mdy_hm(energy$datetime_beginning_ept))
energy <- energy %>% mutate(date = date(energy$datetime_beginning_ept))

#Roll up to total daily MW
energy2 <- energy %>% group_by(date) %>% summarise(mw=sum(mw))

#Average MW by month
energy2 <- energy2 %>% mutate(yr_month = yearmonth(energy2$date))
energy2 <- energy2 %>% group_by(yr_month) %>% summarise(mw=mean(mw))
energy2
```

    ## # A tibble: 72 × 2
    ##    yr_month      mw
    ##       <mth>   <dbl>
    ##  1 2018 Aug 112235.
    ##  2 2018 Sep 106165.
    ##  3 2018 Oct 101049.
    ##  4 2018 Nov 110296.
    ##  5 2018 Dec 119736.
    ##  6 2019 Jan 130367.
    ##  7 2019 Feb 116998.
    ##  8 2019 Mar 111472.
    ##  9 2019 Apr  94396.
    ## 10 2019 May  98615.
    ## # ℹ 62 more rows

``` r
#Convert to tsibble
energy.ts <- as_tsibble(energy2, index=yr_month)
energy.ts
```

    ## # A tsibble: 72 x 2 [1M]
    ##    yr_month      mw
    ##       <mth>   <dbl>
    ##  1 2018 Aug 112235.
    ##  2 2018 Sep 106165.
    ##  3 2018 Oct 101049.
    ##  4 2018 Nov 110296.
    ##  5 2018 Dec 119736.
    ##  6 2019 Jan 130367.
    ##  7 2019 Feb 116998.
    ##  8 2019 Mar 111472.
    ##  9 2019 Apr  94396.
    ## 10 2019 May  98615.
    ## # ℹ 62 more rows
``` r
#Create train, validation, and test
train = energy.month[c(1:48),]
validation = energy.month[c(49:60),]
test = energy.month[c(61:72),]
```

Training Dataset Trend (STL decomposition):

``` r
energy_dcmp <- train |> model(stl = STL(mw))
components(energy_dcmp)
```

    ## # A dable: 48 x 7 [1M]
    ## # Key:     .model [1]
    ## # :        mw = trend + season_year + remainder
    ##    .model yr_month      mw   trend season_year remainder season_adjust
    ##    <chr>     <mth>   <dbl>   <dbl>       <dbl>     <dbl>         <dbl>
    ##  1 stl    2018 Aug 112235. 110900.       3265.    -1930.       108970.
    ##  2 stl    2018 Sep 106165. 110687.      -5064.      542.       111229.
    ##  3 stl    2018 Oct 101049. 110474.     -12118.     2692.       113167.
    ##  4 stl    2018 Nov 110296. 110261.        588.     -553.       109708.
    ##  5 stl    2018 Dec 119736. 110048.       9087.      601.       110648.
    ##  6 stl    2019 Jan 130367. 109834.      19908.      625.       110459.
    ##  7 stl    2019 Feb 116998. 109620.      13303.    -5925.       103695.
    ##  8 stl    2019 Mar 111472. 109380.      -2186.     4278.       113658.
    ##  9 stl    2019 Apr  94396. 109139.     -13828.     -914.       108225.
    ## 10 stl    2019 May  98615. 108898.     -12956.     2673.       111571.
    ## # ℹ 38 more rows
…
``` r
#ggsave(plot2, file = "forecast.png", width = 7, height = 4, dpi = 700)
```

Final Project:

``` r
energy <- read_csv('energy_F2024.csv', show_col_types = FALSE)
energy
```

    ## # A tibble: 52,608 × 8
    ##    datetime_beginning_utc datetime_beginning_ept nerc_region mkt_region zone 
    ##    <chr>                  <chr>                  <chr>       <chr>      <chr>
    ##  1 8/1/2018 4:00          8/1/2018 0:00          RFC         WEST       AEP  
    ##  2 8/1/2018 5:00          8/1/2018 1:00          RFC         WEST       AEP  
    ##  3 8/1/2018 6:00          8/1/2018 2:00          RFC         WEST       AEP  
    ##  4 8/1/2018 7:00          8/1/2018 3:00          RFC         WEST       AEP  
    ##  5 8/1/2018 8:00          8/1/2018 4:00          RFC         WEST       AEP  
    ##  6 8/1/2018 9:00          8/1/2018 5:00          RFC         WEST       AEP  
    ##  7 8/1/2018 10:00         8/1/2018 6:00          RFC         WEST       AEP  
    ##  8 8/1/2018 11:00         8/1/2018 7:00          RFC         WEST       AEP  
    ##  9 8/1/2018 12:00         8/1/2018 8:00          RFC         WEST       AEP  
    ## 10 8/1/2018 13:00         8/1/2018 9:00          RFC         WEST       AEP  
    ## # ℹ 52,598 more rows
    ## # ℹ 3 more variables: load_area <chr>, mw <dbl>, is_verified <lgl>
…
#Roll up to total daily MW
energy2 <- energy %>% group_by(date) %>% summarise(mw=sum(mw))

#Average MW by month
energy2 <- energy2 %>% mutate(yr_month = yearmonth(energy2$date))
energy2 <- energy2 %>% group_by(yr_month) %>% summarise(mw=mean(mw))

#Convert to tsibble
energy.ts <- as_tsibble(energy2, index=yr_month)
energy.ts
```

    ## # A tsibble: 72 x 2 [1M]
    ##    yr_month      mw
    ##       <mth>   <dbl>
    ##  1 2018 Aug 112235.
    ##  2 2018 Sep 106165.
    ##  3 2018 Oct 101049.
    ##  4 2018 Nov 110296.
    ##  5 2018 Dec 119736.
    ##  6 2019 Jan 130367.
    ##  7 2019 Feb 116998.
    ##  8 2019 Mar 111472.
    ##  9 2019 Apr  94396.
    ## 10 2019 May  98615.
    ## # ℹ 62 more rows
…
To meet the client’s wish for a nonseasonal model, the data was adjusted
to eliminate seasonal effects. To do so, Seasonal and Trend using LOESS
(STL) decomposition was used to extract the seasonal component from the
data. Figure 1 displays the actual MW usage values compared to the
seasonally adjusted values for the training dataset. As displayed in
Figure 1, the seasonally adjusted data does not have the repetitive
seasonal fluctuations seen in the original data.

``` r
#STL decomposition
energy_dcmp <- energy.ts |> model(stl = STL(mw))
components(energy_dcmp)
```

    ## # A dable: 72 x 7 [1M]
    ## # Key:     .model [1]
    ## # :        mw = trend + season_year + remainder
    ##    .model yr_month      mw   trend season_year remainder season_adjust
    ##    <chr>     <mth>   <dbl>   <dbl>       <dbl>     <dbl>         <dbl>
    ##  1 stl    2018 Aug 112235. 111072.       3247.    -2085.       108988.
    ##  2 stl    2018 Sep 106165. 110837.      -5675.     1002.       111839.
    ##  3 stl    2018 Oct 101049. 110602.     -12135.     2582.       113184.
    ##  4 stl    2018 Nov 110296. 110366.        469.     -538.       109828.
    ##  5 stl    2018 Dec 119736. 110131.      10108.     -504.       109627.
    ##  6 stl    2019 Jan 130367. 109897.      19375.     1095.       110991.
    ##  7 stl    2019 Feb 116998. 109662.      11965.    -4629.       105033.
    ##  8 stl    2019 Mar 111472. 109405.      -2065.     4132.       113537.
    ##  9 stl    2019 Apr  94396. 109149.     -13449.    -1303.       107845.
    ## 10 stl    2019 May  98615. 108892.     -12524.     2247.       111139.
    ## # ℹ 62 more rows
…
trainadj = seasonaladj[c(1:48),]
validationadj = seasonaladj[c(49:60),]
testadj = seasonaladj[c(61:72),]

train_dcmp = energy.ts[c(1:48),] |> model(stl = STL(mw))


train_dcmp_long = components(train_dcmp) %>% dplyr::select(yr_month, season_adjust, mw, trend) %>% pivot_longer(cols = c(season_adjust, mw), names_to = "Metric", values_to = "Value")
train_dcmp_long
```

    ## # A tsibble: 96 x 4 [1M]
    ## # Key:       Metric [2]
    ##    yr_month   trend Metric          Value
    ##       <mth>   <dbl> <chr>           <dbl>
    ##  1 2018 Aug 110900. season_adjust 108970.
    ##  2 2018 Aug 110900. mw            112235.
    ##  3 2018 Sep 110687. season_adjust 111229.
    ##  4 2018 Sep 110687. mw            106165.
    ##  5 2018 Oct 110474. season_adjust 113167.
    ##  6 2018 Oct 110474. mw            101049.
    ##  7 2018 Nov 110261. season_adjust 109708.
    ##  8 2018 Nov 110261. mw            110296.
    ##  9 2018 Dec 110048. season_adjust 110648.
    ## 10 2018 Dec 110048. mw            119736.
    ## # ℹ 86 more rows
…
